vignette_pkggraph • pkggraph
…
Quickstart

suppressPackageStartupMessages(library("tidyverse"))      # for tidy data manipulations
suppressPackageStartupMessages(library("magrittr"))       # for friendly piping
suppressPackageStartupMessages(library("sna"))            # for plotting
suppressPackageStartupMessages(library("statnet.common")) # for plotting
suppressPackageStartupMessages(library("network"))        # for plotting
suppressPackageStartupMessages(library("networkD3"))      # for plotting
suppressPackageStartupMessages(library("igraph"))         # for graph computations
suppressPackageStartupMessages(library("pkggraph"))       # attach the package
suppressMessages(init())                                  # initiate the package

get_neighborhood("mlr") # a tibble, every row indicates a dependency

## # A tibble: 442 x 3
##          pkg_1 relation        pkg_2
##          <chr>   <fctr>        <chr>
##  1         ada  Depends        rpart
##  2      adabag  Depends        rpart
##  3      adabag  Depends      mlbench
##  4      adabag  Depends        caret
##  5 bartMachine  Depends randomForest
##  6  batchtools  Depends   data.table
##  7         bst  Depends          gbm
##  8       caret  Depends      ggplot2
##  9  clusterSim  Depends      cluster
## 10  clusterSim  Depends         MASS
## # ... with 432 more rows
…
Lets observe packages that ‘Suggest’ knitr.

get_reverse_suggests("knitr", level = 1)

## # A tibble: 1,949 x 3
##              pkg_1 relation pkg_2
##              <chr>   <fctr> <chr>
##  1          abbyyR Suggests knitr
##  2         ABC.RAP Suggests knitr
##  3    ABHgenotypeR Suggests knitr
##  4           AbSim Suggests knitr
##  5        ACMEeqtl Suggests knitr
##  6           acmeR Suggests knitr
##  7            acnr Suggests knitr
##  8       ACSNMineR Suggests knitr
##  9    adaptiveGPCA Suggests knitr
## 10 additivityTests Suggests knitr
## # ... with 1,939 more rows

By setting level = 2, observe that packages from first level (first column of the previous table) and their suggestors are captured.

get_reverse_suggests("knitr", level = 2)

## # A tibble: 4,670 x 3
##           pkg_1 relation   pkg_2
##           <chr>   <fctr>   <chr>
##  1       abbyyR Suggests   knitr
##  2      ABC.RAP Suggests   knitr
##  3     ABCoptim Suggests    covr
##  4     abctools Suggests ggplot2
##  5          abd Suggests ggplot2
##  6          abd Suggests   Hmisc
##  7 ABHgenotypeR Suggests   knitr
##  8        AbSim Suggests   knitr
##  9     acebayes Suggests   R.rsp
## 10     ACMEeqtl Suggests   knitr
## # ... with 4,660 more rows
…
get_all_dependencies("mlr", relation = c("Depends", "Imports"), level = 2)

## # A tibble: 292 x 3
##          pkg_1 relation           pkg_2
##          <chr>   <fctr>           <chr>
##  1         ada  Depends           rpart
##  2      adabag  Depends           rpart
##  3      adabag  Depends         mlbench
##  4      adabag  Depends           caret
##  5 bartMachine  Depends           rJava
##  6 bartMachine  Depends bartMachineJARs
##  7 bartMachine  Depends             car
##  8 bartMachine  Depends    randomForest
##  9 bartMachine  Depends      missForest
## 10  batchtools  Depends      data.table
## # ... with 282 more rows

Observe that ada ‘Depends’ on rpart.

Sometimes, we would like to capture only specified dependencies recursively. In this case, at second level, say we would like to capture only ‘Depends’ and ‘Imports’ of packages which were dependents/imports of mlr. Then, set strict = TRUE.

get_all_dependencies("mlr"
                     , relation = c("Depends", "Imports")
                     , level    = 2
                     , strict   = TRUE)

## # A tibble: 28 x 3
##        pkg_1 relation        pkg_2
##        <chr>   <fctr>        <chr>
##  1       mlr  Depends ParamHelpers
##  2    BBmisc  Imports    checkmate
##  3 checkmate  Imports    backports
##  4   ggplot2  Imports       digest
##  5   ggplot2  Imports         grid
##  6   ggplot2  Imports       gtable
##  7   ggplot2  Imports         MASS
##  8   ggplot2  Imports         plyr
##  9   ggplot2  Imports     reshape2
## 10   ggplot2  Imports       scales
## # ... with 18 more rows

Notice that ada was ’Suggest’ed by mlr. That is why, it appeared when strict was FALSE(default).

What if we required to capture both dependencies and reverse dependencies until a specified level?

get_neighborhood

This function captures both dependencies and reverse dependencies until a specified level for a given subset of dependency type.

get_neighborhood("hash", level = 2)

## # A tibble: 60 x 3
##          pkg_1 relation  pkg_2
##          <chr>   <fctr>  <chr>
##  1         BOG  Depends   hash
##  2      COMBIA  Depends   hash
##  3        GABi  Depends   hash
##  4     HAP.ROR  Depends   hash
##  5     neuroim  Depends   hash
##  6   orderbook  Depends   hash
##  7 rpartitions  Depends   hash
##  8  Rtextrankr  Depends  KoNLP
##  9       CITAN  Imports   hash
## 10        covr  Imports crayon
## # ... with 50 more rows
…
